[
  [
    "http://code.jquery.com/jquery-1.10.2.min.js",
    [
      "http://localhost/identitate-falsa/",
      "http://localhost/jpeg-enricher/"
    ]
  ],
  [
    "http://fonts.googleapis.com/css?family=Open+Sans:300,400,700&subset=latin,latin-ext",
    [
      "http://localhost/home-2014/"
    ]
  ],
  [
    "http://fonts.googleapis.com/css?family=Open+Sans:300italic,400italic,700italic,800italic,300,400,700,800&subset=latin,latin-ext",
    [
      "http://localhost/multilatex-dissertation/presentation/"
    ]
  ],
  [
    "http://fonts.googleapis.com/css?family=Open+Sans:400italic,700italic,400,700|Open+Sans+Condensed:300,300italic,700&subset=latin,latin-ext",
    [
      "http://localhost/identitate-falsa/",
      "http://localhost/jpeg-enricher/"
    ]
  ],
  [
    "http://fonts.googleapis.com/css?family=Ubuntu+Mono:400,700,400italic,700italic|Ubuntu:400,700,400italic,700italic",
    [
      "http://localhost/facetrain/",
      "http://localhost/go-concurrency/"
    ]
  ],
  [
    "http://netdna.bootstrapcdn.com/bootstrap/3.1.1/css/bootstrap.min.css",
    [
      "http://localhost/identitate-falsa/",
      "http://localhost/jpeg-enricher/"
    ]
  ],
  [
    "http://netdna.bootstrapcdn.com/bootstrap/3.1.1/fonts/glyphicons-halflings-regular.woff",
    [
      "http://localhost/identitate-falsa/",
      "http://localhost/jpeg-enricher/"
    ]
  ],
  [
    "http://netdna.bootstrapcdn.com/bootstrap/3.1.1/js/bootstrap.min.js",
    [
      "http://localhost/identitate-falsa/",
      "http://localhost/jpeg-enricher/"
    ]
  ],
  [
    "https://code.jquery.com/jquery-1.12.4.min.js",
    [
      "http://localhost/minimul/rauri/"
    ]
  ],
  [
    "https://fonts.googleapis.com/css?family=Anton&subset=latin-ext",
    [
      "http://localhost/minimul/",
      "http://localhost/minimul/anglicisme/",
      "http://localhost/minimul/cugetari/",
      "http://localhost/minimul/cugetari/?o=cresc",
      "http://localhost/minimul/indrumar/",
      "http://localhost/minimul/rauri/"
    ]
  ],
  [
    "https://fonts.googleapis.com/css?family=Montserrat:700",
    [
      "http://localhost/clang-static-analyzer/",
      "http://localhost/executable-code-injection/",
      "http://localhost/using-metasploit/",
      "http://localhost/using-openvas/"
    ]
  ],
  [
    "https://fonts.googleapis.com/css?family=Open+Sans:300,400,700&subset=latin,latin-ext",
    [
      "http://localhost/home-2014/"
    ]
  ],
  [
    "https://fonts.googleapis.com/css?family=Open+Sans:300italic,400italic,700italic,800italic,300,400,700,800&subset=latin,latin-ext",
    [
      "http://localhost/multilatex-dissertation/presentation/"
    ]
  ],
  [
    "https://fonts.googleapis.com/css?family=Open+Sans:400,700,400italic,700italic",
    [
      "http://localhost/clang-static-analyzer/",
      "http://localhost/executable-code-injection/",
      "http://localhost/using-metasploit/",
      "http://localhost/using-openvas/"
    ]
  ],
  [
    "https://fonts.googleapis.com/css?family=Open+Sans:400italic,700italic,400,700|Open+Sans+Condensed:300,300italic,700&subset=latin,latin-ext",
    [
      "http://localhost/identitate-falsa/",
      "http://localhost/jpeg-enricher/"
    ]
  ],
  [
    "https://fonts.googleapis.com/css?family=Ubuntu+Mono:400,700,400italic,700italic|Ubuntu:400,700,400italic,700italic",
    [
      "http://localhost/facetrain/",
      "http://localhost/go-concurrency/"
    ]
  ],
  [
    "https://fonts.gstatic.com/s/anton/v25/1Ptgg87LROyAm3K9-C8QSw.woff2",
    [
      "http://localhost/minimul/anglicisme/",
      "http://localhost/minimul/cugetari/",
      "http://localhost/minimul/cugetari/?o=cresc"
    ]
  ],
  [
    "https://fonts.gstatic.com/s/anton/v25/1Ptgg87LROyAm3Kz-C8.woff2",
    [
      "http://localhost/minimul/",
      "http://localhost/minimul/anglicisme/",
      "http://localhost/minimul/cugetari/",
      "http://localhost/minimul/cugetari/?o=cresc",
      "http://localhost/minimul/indrumar/",
      "http://localhost/minimul/rauri/"
    ]
  ],
  [
    "https://fonts.gstatic.com/s/montserrat/v29/JTUHjIg1_i6t8kCHKm4532VJOt5-QNFgpCuM73w5aXo.woff2",
    [
      "http://localhost/clang-static-analyzer/",
      "http://localhost/executable-code-injection/",
      "http://localhost/using-metasploit/",
      "http://localhost/using-openvas/"
    ]
  ],
  [
    "https://fonts.gstatic.com/s/opensans/v40/memtYaGs126MiZpBA-UFUIcVXSCEkx2cmqvXlWqWuU6F.woff2",
    [
      "http://localhost/clang-static-analyzer/",
      "http://localhost/executable-code-injection/",
      "http://localhost/multilatex-dissertation/presentation/",
      "http://localhost/using-metasploit/",
      "http://localhost/using-openvas/"
    ]
  ],
  [
    "https://fonts.gstatic.com/s/opensans/v40/memvYaGs126MiZpBA-UvWbX2vVnXBbObj2OVTS-muw.woff2",
    [
      "http://localhost/clang-static-analyzer/",
      "http://localhost/executable-code-injection/",
      "http://localhost/jpeg-enricher/",
      "http://localhost/multilatex-dissertation/presentation/",
      "http://localhost/using-metasploit/",
      "http://localhost/using-openvas/"
    ]
  ],
  [
    "https://fonts.gstatic.com/s/opensans/v40/memvYaGs126MiZpBA-UvWbX2vVnXBbObj2OVTSGmu1aB.woff2",
    [
      "http://localhost/home-2014/",
      "http://localhost/identitate-falsa/",
      "http://localhost/jpeg-enricher/"
    ]
  ],
  [
    "https://fonts.gstatic.com/s/opensanscondensed/v23/z7NFdQDnbTkabZAIOl9il_O6KJj73e7Ff1GhDuXMRw.woff2",
    [
      "http://localhost/identitate-falsa/",
      "http://localhost/jpeg-enricher/"
    ]
  ],
  [
    "https://fonts.gstatic.com/s/opensanscondensed/v23/z7NFdQDnbTkabZAIOl9il_O6KJj73e7Ff1GhDuvMR6WR.woff2",
    [
      "http://localhost/identitate-falsa/"
    ]
  ],
  [
    "https://fonts.gstatic.com/s/ubuntu/v20/4iCs6KVjbNBYlgoKfw72.woff2",
    [
      "http://localhost/facetrain/",
      "http://localhost/go-concurrency/"
    ]
  ],
  [
    "https://fonts.gstatic.com/s/ubuntu/v20/4iCu6KVjbNBYlgoKej70l0k.woff2",
    [
      "http://localhost/facetrain/",
      "http://localhost/go-concurrency/"
    ]
  ],
  [
    "https://fonts.gstatic.com/s/ubuntu/v20/4iCv6KVjbNBYlgoCxCvjsGyN.woff2",
    [
      "http://localhost/facetrain/",
      "http://localhost/go-concurrency/"
    ]
  ]
]